<?xml version="1.0" encoding="UTF-8" standalone="no"?>
<!-- Created with Inkscape (http://www.inkscape.org/) -->

<svg
   width="160"
   height="64"
   viewBox="0 0 42.333333 16.933334"
   version="1.1"
   id="svg673"
   inkscape:version="1.1.2 (0a00cf5339, 2022-02-04)"
   sodipodi:docname="button_small_red.svg"
   xmlns:inkscape="http://www.inkscape.org/namespaces/inkscape"
   xmlns:sodipodi="http://sodipodi.sourceforge.net/DTD/sodipodi-0.dtd"
   xmlns="http://www.w3.org/2000/svg"
   xmlns:svg="http://www.w3.org/2000/svg">
  <sodipodi:namedview
     id="namedview675"
     pagecolor="#ffffff"
     bordercolor="#999999"
     borderopacity="1"
     inkscape:pageshadow="0"
     inkscape:pageopacity="0"
     inkscape:pagecheckerboard="0"
     inkscape:document-units="mm"
     showgrid="false"
     units="px"
     inkscape:zoom="4.1532469"
     inkscape:cx="124.7217"
     inkscape:cy="53.813319"
     inkscape:window-width="1866"
     inkscape:window-height="1016"
     inkscape:window-x="54"
     inkscape:window-y="0"
     inkscape:window-maximized="1"
     inkscape:current-layer="g397"
     width="160px" />
  <defs
     id="defs670">
    <clipPath
       id="_clip37">
      <path
         d="M 535,182.7 C 535,171.275 529.925,162 523.675,162 H 244.325 C 238.075,162 233,171.275 233,182.7 v 96.6 c 0,11.425 5.075,20.7 11.325,20.7 h 279.35 c 6.25,0 11.325,-9.275 11.325,-20.7 z"
         id="path382" />
    </clipPath>
    <linearGradient
       id="_Linear38"
       x1="0"
       y1="0"
       x2="1"
       y2="0"
       gradientUnits="userSpaceOnUse"
       gradientTransform="matrix(0,64,-64,0,1612,189.996)">
      <stop
         offset="0"
         style="stop-color:black;stop-opacity:0.2"
         id="stop535" />
      <stop
         offset="1"
         style="stop-color:black;stop-opacity:0"
         id="stop537" />
    </linearGradient>
  </defs>
  <g
     inkscape:label="Ebene 1"
     inkscape:groupmode="layer"
     id="layer1">
    <g
       transform="matrix(0.12897771,0,0,0.56240321,-81.354925,-178.97182)"
       id="g399"
       style="clip-rule:evenodd;fill-rule:evenodd;stroke-linecap:round;stroke-linejoin:round;stroke-miterlimit:1.5">
      <g
         transform="matrix(1.08503,0,0,0.217391,378.227,283.064)"
         id="g397">
        <path
           d="M 535,182.7 C 535,171.275 529.925,162 523.675,162 H 244.325 C 238.075,162 233,171.275 233,182.7 v 96.6 c 0,11.425 5.075,20.7 11.325,20.7 h 279.35 c 6.25,0 11.325,-9.275 11.325,-20.7 z"
           style="fill:#700000;fill-opacity:1"
           id="path380" />
        <clipPath
           id="clipPath572">
          <path
             d="M 535,182.7 C 535,171.275 529.925,162 523.675,162 H 244.325 C 238.075,162 233,171.275 233,182.7 v 96.6 c 0,11.425 5.075,20.7 11.325,20.7 h 279.35 c 6.25,0 11.325,-9.275 11.325,-20.7 z"
             id="path570" />
        </clipPath>
        <g
           clip-path="url(#_clip37)"
           id="g393">
          <g
             transform="matrix(0.589844,0,0,1.07813,-566.828,26.1606)"
             id="g391">
            <path
               d="m 1844.09,190 h -464.01 c -7.81,0 -14.15,6.337 -14.15,14.143 v 28.287 c 0,7.806 6.34,14.144 14.15,14.144 H 1868 L 1867.95,143 h -0.07 c -0.73,-6.328 -4.53,-11.726 -9.88,-14.653 v 38.364 9.146 c 0,7.728 -6.21,14.017 -13.91,14.141 z"
               style="fill:url(#_Linear38)"
               id="path389" />
          </g>
        </g>
        <path
           d="m 533.22597,183.94175 c 0,-11.13126 -5.01539,-20.16781 -11.19196,-20.16781 h -276.068 c -6.17658,0 -11.19196,9.03655 -11.19196,20.16781 v 94.1164 c 0,11.13126 5.01538,20.16781 11.19196,20.16781 h 276.068 c 6.17657,0 11.19196,-9.03655 11.19196,-20.16781 z"
           style="fill:none;stroke:#000000;stroke-width:4.04885;stroke-miterlimit:0;stroke-dasharray:none"
           id="path395" />
      </g>
    </g>
  </g>
</svg>
