<?xml version="1.0" encoding="UTF-8" standalone="no"?>
<svg
   width="48"
   height="48"
   viewBox="0 0 48 48"
   version="1.1"
   id="svg14"
   sodipodi:docname="icon_go_previous.svg"
   inkscape:version="1.1.2 (0a00cf5339, 2022-02-04)"
   xmlns:inkscape="http://www.inkscape.org/namespaces/inkscape"
   xmlns:sodipodi="http://sodipodi.sourceforge.net/DTD/sodipodi-0.dtd"
   xmlns="http://www.w3.org/2000/svg"
   xmlns:svg="http://www.w3.org/2000/svg">
  <defs
     id="defs18" />
  <sodipodi:namedview
     id="namedview16"
     pagecolor="#ffffff"
     bordercolor="#999999"
     borderopacity="1"
     inkscape:pageshadow="0"
     inkscape:pageopacity="0"
     inkscape:pagecheckerboard="true"
     showgrid="false"
     width="48px"
     inkscape:zoom="12.212701"
     inkscape:cx="7.0418493"
     inkscape:cy="22.558482"
     inkscape:window-width="1866"
     inkscape:window-height="1016"
     inkscape:window-x="54"
     inkscape:window-y="0"
     inkscape:window-maximized="1"
     inkscape:current-layer="svg14" />
  <g
     fill="#ffffff"
     id="g12"
     transform="matrix(2.6146587,0,0,3.1428571,2.6240953,-1.1428571)">
    <path
       d="m 11.707,2.707 -1.4141,-1.4141 -6.707,6.707 6.707,6.707 1.4141,-1.4141 -5.293,-5.293 z"
       id="path2" />
    <path
       d="m 11,15 h 1 v -1 h -1 z"
       id="path4" />
    <path
       d="m 11,2 h 1 V 1 h -1 z"
       id="path6" />
    <path
       d="m 11,3 c 0.55469,0 1,-0.44531 1,-1 0,-0.55469 -0.44531,-1 -1,-1 -0.55469,0 -1,0.44531 -1,1 0,0.55469 0.44531,1 1,1 z"
       id="path8" />
    <path
       d="m 11,15 c 0.55469,0 1,-0.44531 1,-1 0,-0.55469 -0.44531,-1 -1,-1 -0.55469,0 -1,0.44531 -1,1 0,0.55469 0.44531,1 1,1 z"
       id="path10" />
  </g>
</svg>
