<?xml version="1.0" encoding="UTF-8" standalone="no"?>
<svg
   height="32"
   viewBox="0 0 32 32"
   width="32"
   version="1.1"
   id="svg8"
   sodipodi:docname="icon_dialog_reload.svg"
   inkscape:version="1.1.2 (0a00cf5339, 2022-02-04)"
   xmlns:inkscape="http://www.inkscape.org/namespaces/inkscape"
   xmlns:sodipodi="http://sodipodi.sourceforge.net/DTD/sodipodi-0.dtd"
   xmlns="http://www.w3.org/2000/svg"
   xmlns:svg="http://www.w3.org/2000/svg">
  <defs
     id="defs12" />
  <sodipodi:namedview
     id="namedview10"
     pagecolor="#ffffff"
     bordercolor="#999999"
     borderopacity="1"
     inkscape:pageshadow="0"
     inkscape:pageopacity="0"
     inkscape:pagecheckerboard="true"
     showgrid="false"
     inkscape:zoom="44.9375"
     inkscape:cx="8"
     inkscape:cy="8"
     inkscape:window-width="1866"
     inkscape:window-height="1016"
     inkscape:window-x="54"
     inkscape:window-y="0"
     inkscape:window-maximized="1"
     inkscape:current-layer="svg8" />
  <g
     fill="#e0e0e0"
     transform="matrix(1.8606393,0,0,2,0.09041024,-2072.8)"
     id="g6"
     style="fill:#ffffff">
    <path
       d="M 9,2 A 6,6 0 0 0 3,8 h 2 a 4,4 0 0 1 4,-4 4,4 0 0 1 4,4 4,4 0 0 1 -4,4 v 2 A 6,6 0 0 0 15,8 6,6 0 0 0 9,2 Z"
       transform="translate(0,1036.4)"
       id="path2"
       style="fill:#ffffff" />
    <path
       d="m 4.118,1048.3 -1.6771,-0.9683 -1.6771,-0.9682 1.6771,-0.9683 1.6771,-0.9682 -1e-7,1.9365 z"
       transform="matrix(0,-1.1926,1.5492,0,-1617,1049.3)"
       id="path4"
       style="fill:#ffffff" />
  </g>
</svg>
