<?xml version="1.0" encoding="UTF-8" standalone="no"?>
<svg
   height="32"
   viewBox="0 0 32 32"
   width="32"
   version="1.1"
   id="svg4"
   sodipodi:docname="icon_dialog_toggle_hidden.svg"
   inkscape:version="1.1.2 (0a00cf5339, 2022-02-04)"
   xmlns:inkscape="http://www.inkscape.org/namespaces/inkscape"
   xmlns:sodipodi="http://sodipodi.sourceforge.net/DTD/sodipodi-0.dtd"
   xmlns="http://www.w3.org/2000/svg"
   xmlns:svg="http://www.w3.org/2000/svg">
  <defs
     id="defs8" />
  <sodipodi:namedview
     id="namedview6"
     pagecolor="#ffffff"
     bordercolor="#999999"
     borderopacity="1"
     inkscape:pageshadow="0"
     inkscape:pageopacity="0"
     inkscape:pagecheckerboard="true"
     showgrid="false"
     width="32px"
     inkscape:zoom="44.9375"
     inkscape:cx="8"
     inkscape:cy="8"
     inkscape:window-width="1866"
     inkscape:window-height="1016"
     inkscape:window-x="54"
     inkscape:window-y="0"
     inkscape:window-maximized="1"
     inkscape:current-layer="svg4" />
  <path
     d="m 15.999816,4.00004 c -5.113625,0 -11.5819107,3.8953903 -13.9108134,11.410171 a 2.0002883,2.000195 0 0 0 -0.011721,1.140618 C 4.3261809,24.421609 10.999476,28 15.999696,28 20.999916,28 27.673211,24.421609 29.92211,16.550829 a 2.0002883,2.000195 0 0 0 0,-1.105458 C 27.721413,7.8701903 21.108521,4 15.999696,4 Z m 0,3.99999 a 8.000353,7.99998 0 0 1 8.000353,7.99998 8.000353,7.99998 0 0 1 -8.000353,7.99998 8.000353,7.99998 0 0 1 -8.0003526,-7.99998 8.000353,7.99998 0 0 1 8.0003526,-7.99998 z m 0,3.99999 A 4.0001765,3.99999 0 0 0 11.99964,16.00001 4.0001765,3.99999 0 0 0 15.999816,20 4.0001765,3.99999 0 0 0 19.999992,16.00001 4.0001765,3.99999 0 0 0 15.999816,12.00002 Z"
     fill="#e0e0e0"
     fill-rule="evenodd"
     id="path2"
     style="stroke-width:2.00003;fill:#ffffff" />
</svg>
