<?xml version="1.0" encoding="UTF-8" standalone="no"?>
<svg
   width="48"
   height="48"
   version="1.1"
   id="svg6"
   sodipodi:docname="icon_delete.svg"
   inkscape:version="1.1.2 (0a00cf5339, 2022-02-04)"
   xmlns:inkscape="http://www.inkscape.org/namespaces/inkscape"
   xmlns:sodipodi="http://sodipodi.sourceforge.net/DTD/sodipodi-0.dtd"
   xmlns="http://www.w3.org/2000/svg"
   xmlns:svg="http://www.w3.org/2000/svg">
  <defs
     id="defs10" />
  <sodipodi:namedview
     id="namedview8"
     pagecolor="#ffffff"
     bordercolor="#999999"
     borderopacity="1"
     inkscape:pageshadow="0"
     inkscape:pageopacity="0"
     inkscape:pagecheckerboard="0"
     showgrid="false"
     width="48px"
     inkscape:zoom="3.1304899"
     inkscape:cx="-89.762308"
     inkscape:cy="33.700796"
     inkscape:window-width="1866"
     inkscape:window-height="1016"
     inkscape:window-x="54"
     inkscape:window-y="0"
     inkscape:window-maximized="1"
     inkscape:current-layer="svg6" />
  <path
     style="fill:#ffffff;stroke-width:3.04512;fill-opacity:1"
     d="M 37.909091,45 C 39.516364,45 41,43.56 41,42 V 15 H 7 v 27 c 0,1.56 1.4836364,3 3.090909,3"
     id="path2" />
  <path
     style="fill:#ffffff;stroke-width:3.11324;fill-opacity:1"
     d="m 3,9 v 3 H 45 V 9 C 45,6 41.769231,6 41.769231,6 h -9.692308 c 0,0 0,-3 -3.230769,-3 H 19.153846 C 15.923077,3 15.923077,6 15.923077,6 H 6.2307692 C 6.2307692,6 3,6 3,9 Z"
     id="path4" />
</svg>
