<?xml version="1.0" encoding="UTF-8" standalone="no"?>
<svg
   height="32"
   viewBox="0 0 64 31.999998"
   width="64"
   version="1.1"
   id="svg973"
   sodipodi:docname="icon_toggle_on_disabled.svg"
   inkscape:version="1.1.2 (0a00cf5339, 2022-02-04)"
   xmlns:inkscape="http://www.inkscape.org/namespaces/inkscape"
   xmlns:sodipodi="http://sodipodi.sourceforge.net/DTD/sodipodi-0.dtd"
   xmlns="http://www.w3.org/2000/svg"
   xmlns:svg="http://www.w3.org/2000/svg">
  <defs
     id="defs977" />
  <sodipodi:namedview
     id="namedview975"
     pagecolor="#ffffff"
     bordercolor="#999999"
     borderopacity="1"
     inkscape:pageshadow="0"
     inkscape:pageopacity="0"
     inkscape:pagecheckerboard="0"
     showgrid="false"
     width="62px"
     inkscape:zoom="11.005475"
     inkscape:cx="35.527771"
     inkscape:cy="10.131321"
     inkscape:window-width="1866"
     inkscape:window-height="1016"
     inkscape:window-x="54"
     inkscape:window-y="0"
     inkscape:window-maximized="1"
     inkscape:current-layer="g971" />
  <g
     stroke-width="0.999997"
     transform="matrix(-2.0666667,0,0,2.1428571,-1.0666667,-1.1428571)"
     id="g971">
    <rect
       fill="#ffffff"
       fill-opacity="0.37"
       height="14"
       rx="7.000001"
       width="30"
       x="-31"
       y="1"
       id="rect967"
       style="fill:#006000;fill-opacity:0.5" />
    <circle
       cx="-24"
       cy="8"
       fill="#1a1a1a"
       fill-opacity="0.5"
       r="5"
       id="circle969"
       style="fill:#ffffff;fill-opacity:0.75" />
  </g>
</svg>
