{
  "start": [
    {
      "id": 0,
      "modificator": 0,
      "text": "You did not notice the starting signal because it was too noisy in the stadium!\nYou miss the start completely."
    },
    {
      "id": 1,
      "modificator": 0.5,
      "text": "You are distracted from your granny waving to you in the crowd!\nYou fail to notice the start."
    },
    {
      "id": 2,
      "modificator": 0.5,
      "text": "There is a chewing gum sticking under your right shoe!\nTherefore you fail to gain momentum."
    },
    {
      "id": 3,
      "modificator": 0.75,
      "text": "A really annoying fly bothers you.!\nYour start is not perfect."
    },
    {
      "id": 4,
      "modificator": 1.25,
      "text": "You had an awesome breakfast at McDonalds!\nTherefore you run a little faster."
    },
    {
      "id": 5,
      "modificator": 1.25,
      "text": "You are wearing a new pair of shoes!\nYou get off to a good start."
    },
    {
      "id": 6,
      "modificator": 1.5,
      "text": "You drank five energy drinks before the start!\nThey make you run as fast as a cheetah."
    },
    {
      "id": 7,
      "modificator": 1.5,
      "text": "Your grandpa has given you some helpful tips right before the start!\nYou are dashing forward."
    }
  ],
  "meantime": [
    {
      "id": 0,
      "modificator": 0,
      "text": "You spotted a very beautiful looking flower at the side of the racetrack!\nYou pause to pick it up."
    },
    {
      "id": 1,
      "modificator": 0,
      "text": "You stumble upon a stone!\nTherefore you fail to get on."
    },
    {
      "id": 2,
      "modificator": 0,
      "text": "Your phone is ringing!\nYou have to slow down to turn it off."
    },
    {
      "id": 3,
      "modificator": 0.5,
      "text": "Your shoelace came undone!\nIt causes you to run slower. The last thing you want is to trip over them."
    },
    {
      "id": 4,
      "modificator": 0.5,
      "text": "You are feeling dizzy, because you did not drink enough!\nIt slows you down real bad."
    },
    {
      "id": 5,
      "modificator": 0.5,
      "text": "Your left leg is starting to convulse!\nIt causes you to make just a moderate progress."
    },
    {
      "id": 6,
      "modificator": 0.5,
      "text": "Is there Justin Bieber sitting in the crowd?\nYou start to slow down because you really want to know."
    },
    {
      "id": 7,
      "modificator": 0.5,
      "text": "It is very windy today!\nThe contrary wind is pushing you behind."
    },
    {
      "id": 8,
      "modificator": 0.75,
      "text": "Is there an UFO in the sky?\nYou slow down to find out."
    },
    {
      "id": 9,
      "modificator": 0.75,
      "text": "There is a viewer glaring you with a laser pointer!\nIt makes it hard for you to regain your momentum."
    },
    {
      "id": 10,
      "modificator": 0.75,
      "text": "An ant is crawling onto the field!\nYou dodge the ant and lose your original pace."
    },
    {
      "id": 11,
      "modificator": 0.75,
      "text": "Did you forget to do your math homework?\nYou start to lose pace while being lost in your own thoughts."
    },
    {
      "id": 12,
      "modificator": 1,
      "text": "Oh wait… There is actually nothing happening right now!\nYou just keep on running."
    },
    {
      "id": 13,
      "modificator": 1.25,
      "text": "Your mom cheers you on in the most vigorous way possible!\nIt gives you some extra motivation and you start to run faster."
    },
    {
      "id": 14,
      "modificator": 1.25,
      "text": "The track is slightly drifting downhill!\nIt results in you running slightly faster than everyone else."
    },
    {
      "id": 15,
      "modificator": 1.25,
      "text": "You are wearing your lucky pants!\nThinking of them, you are running faster."
    },
    {
      "id": 16,
      "modificator": 1.25,
      "text": "Your new haircut is extra streamlined!\nYou are faster than expected."
    },
    {
      "id": 17,
      "modificator": 1.25,
      "text": "You ate bean soup today!\nIt gives you some extra speed."
    },
    {
      "id": 18,
      "modificator": 1.25,
      "text": "You just realized that you have a very important appointment at the dentist’s!\nYou run as fast as you can so you won’t arrive too late."
    },
    {
      "id": 19,
      "modificator": 1.5,
      "text": "You are being chased by a wasp!\nYou run faster to outrun it."
    },
    {
      "id": 20,
      "modificator": 1.5,
      "text": "It is very windy today!\nThe tailwind is giving you maximum pace."
    },
    {
      "id": 21,
      "modificator": 1.5,
      "text": "The crowd is shouting your name all over the place!\nThe ambition of the crowd spurred you on."
    },
    {
      "id": 22,
      "modificator": 1.5,
      "text": "You forgot to use the bathroom before running!\nTherefore you start to bolt through the stadium."
    },
    {
      "id": 23,
      "modificator": 1.5,
      "text": "Your dad has promised you a trip to Disneyland if you win this race!\nIt encourages you to run with a lot more extra motivation."
    }
  ],
  "end": [
    {
      "id": 0,
      "modificator": 0,
      "text": "You slip on a banana peel!\nIt causes you to stop for a while."
    },
    {
      "id": 1,
      "modificator": 0.5,
      "text": "You start to lose your breath right before the finishing line!\nYour pace starts to get deadly slow."
    },
    {
      "id": 2,
      "modificator": 0.5,
      "text": "You are deadly sure of winning this race!\nThere is no need to keep on going as quickly as before."
    },
     {
      "id": 3,
      "modificator": 0.75,
      "text": "Right before the finish line, you notice a pebble stone in your shoe!\nIt slows you down."
    },
    {
      "id": 4,
      "modificator": 1.25,
      "text": "There is a tasty soft drink waiting on you right behind the finishing line!\nYour thirst let's you run faster."
    },
    {
      "id": 5,
      "modificator": 1.25,
      "text": "You want to impress your crush!\nYou exert yourself to be the first."
    },
    {
      "id": 6,
      "modificator": 1.5,
      "text": "You really, really want to win at least once in your lifetime!\nYour ambition encourages you to run as fast as you can."
    },
    {
      "id": 7,
      "modificator": 1.5,
      "text": "The finishing line is at your fingertips!\nYour enthusiasm makes you run as fast as never before."
    }
  ]
}
